# A tibble: 2,880 × 78
      ID d_type zone  frontage lot_area road  alley shape contour utilities
   <dbl>  <dbl> <chr>    <dbl>    <dbl> <chr> <chr> <chr> <chr>   <chr>    
 1  1001     60 RL          NA    28698 Pave  NA    IR2   Low     AllPub   
 2  1002     70 RL          51     9842 Pave  NA    Reg   Lvl     AllPub   
 3  1003     60 RL          60    10800 Pave  NA    Reg   Lvl     AllPub   
 4  1004     60 RL          80    11584 Pave  NA    Reg   Lvl     AllPub   
 5  1005    120 RM          62     6710 Pave  NA    IR1   Lvl     AllPub   
 6  1006     20 RL          60     6600 Pave  NA    Reg   Lvl     AllPub   
 7  1007     20 RL          75     9000 Pave  NA    Reg   Lvl     AllPub   
 8  1008     60 RL          80     9024 Pave  NA    IR1   Lvl     AllPub   
 9  1009     20 RM         103    12205 Pave  NA    Reg   Lvl     AllPub   
10  1010     50 RM          NA     7425 Pave  NA    IR1   Bnk     AllPub   
# ℹ 2,870 more rows
# ℹ 68 more variables: configuration <chr>, slope <chr>, neighbourhood <chr>,
#   prox_1 <chr>, prox_2 <chr>, building <chr>, stories <chr>,
#   house_quality <dbl>, house_condition <dbl>, year_built <dbl>,
#   year_remod <dbl>, roof_type <chr>, roof_material <chr>, `exter l_1` <chr>,
#   `exter l_2` <chr>, veneer <chr>, veneer_area <dbl>, `exter l_qual` <chr>,
#   `exter l_cond` <chr>, foundations <chr>, basement_qual <chr>, …
# ℹ Use `print(n = ...)` to see more rows
…
